experiment,width,height,iter,u,s,e
serial,1,1,1000000,1.844070,2.969324,31.674732
openmp_1,1,1,1000000,3.230546,4.411778,31.780044
openmp_8,1,1,1000000,173.177947,2.588836,33.265113
opencl,1,1,1000000,28.541128,3.998492,32.613310

