EXPERIMENT thread=2 width=100 height=100000 repeat=25 hyperthread=1 size(Mib)=3814.697
func,u,s,e
fast,0.298514,0.000000,0.149361,
slow_a,0.998175,0.000000,0.499211,
slow_b,2.895622,0.000000,1.448221,
slow_c,6.316470,0.000000,3.164034,
slow_d,13.662277,26.431459,20.101103,
slow_e,2.997477,0.000000,1.499042,
slow_f,0.267703,0.000000,0.165022,

